{"measuredt":"","controller":"arduino","sensor":"water_level","uptime":169247,"water_level":26.18,"ip":"uart1"}
{"measuredt":"","controller":"arduino","sensor":"temp","uptime":169337,"temp":20.5625,"ip":"uart2"}
{"measuredt":"","controller":"arduino","sensor":"water_level","uptime":175406,"water_level":26.197,"ip":"uart1"}
{"measuredt":"","controller":"arduino","sensor":"temp","uptime":175497,"temp":20.5625,"ip":"uart2"}
