{"measuredt":"","controller":"arduino","sensor":"water_level","uptime":380599,"water_level":26.18,"ip":"uart1"}
{"measuredt":"","controller":"arduino","sensor":"temp","uptime":380689,"temp":20.75,"ip":"uart2"}
{"measuredt":"","controller":"arduino","sensor":"water_level","uptime":386755,"water_level":26.197,"ip":"uart1"}
{"measuredt":"20181024102639.408676","controller":"arduino","sensor":"temp","uptime":386846,"temp":20.6875,"ip":"uart2"}
