{"measuredt":"","controller":"arduino","sensor":"water_level","uptime":68769,"water_level":26.299,"ip":"uart1"}
{"measuredt":"","controller":"arduino","sensor":"temp","uptime":68859,"temp":20.625,"ip":"uart2"}
{"measuredt":"","controller":"arduino","sensor":"water_level","uptime":74927,"water_level":26.282,"ip":"uart1"}
{"measuredt":"","controller":"arduino","sensor":"temp","uptime":75017,"temp":20.625,"ip":"uart2"}
