{"measuredt":"","controller":"arduino","sensor":"water_level","uptime":337488,"water_level":26.197,"ip":"uart1"}
{"measuredt":"20181024102550.222701","controller":"arduino","sensor":"temp","uptime":337580,"temp":20.625,"ip":"uart2"}
{"measuredt":"","controller":"arduino","sensor":"water_level","uptime":343647,"water_level":26.299,"ip":"uart1"}
{"measuredt":"20181024102556.371946","controller":"arduino","sensor":"temp","uptime":343738,"temp":20.6875,"ip":"uart2"}
