{"measuredt":"","controller":"arduino","sensor":"water_level","uptime":298589,"water_level":26.299,"ip":"uart1"}
{"measuredt":"20181024102511.403719","controller":"arduino","sensor":"temp","uptime":298680,"temp":20.75,"ip":"uart2"}
{"measuredt":"","controller":"arduino","sensor":"water_level","uptime":304746,"water_level":26.18,"ip":"uart1"}
{"measuredt":"20181024102517.537323","controller":"arduino","sensor":"temp","uptime":304836,"temp":20.75,"ip":"uart2"}
