t2"}
{"measuredt":"","controller":"arduino","sensor":"water_level","uptime":243155,"water_level":26.18,"ip":"uart1"}
{"measuredt":"","controller":"arduino","sensor":"temp","uptime":243246,"temp":20.6875,"ip":"uart2"}
