{"measuredt":"","controller":"arduino","sensor":"water_level","uptime":429864,"water_level":26.197,"ip":"uart1"}
{"measuredt":"20181024102722.419758","controller":"arduino","sensor":"temp","uptime":429956,"temp":20.625,"ip":"uart2"}
{"measuredt":"","controller":"arduino","sensor":"water_level","uptime":436023,"water_level":26.299,"ip":"uart1"}
{"measuredt":"20181024102728.564046","controller":"arduino","sensor":"temp","uptime":436115,"temp":20.75,"ip":"uart2"}
